<?xml version="1.0" encoding="UTF-8"?>
<testng-results skipped="0" failed="0" ignored="0" total="10" passed="10">
  <reporter-output>
  </reporter-output>
  <suite name="All Test Suite" duration-ms="7548" started-at="2021-06-08T18:18:33Z" finished-at="2021-06-08T18:18:41Z">
    <groups>
    </groups>
    <test name="/Users/asel/Documents/javaMentoring/githubAPI" duration-ms="7548" started-at="2021-06-08T18:18:33Z" finished-at="2021-06-08T18:18:41Z">
      <class name="restAssuredTests.Get_Request_User">
        <test-method status="PASS" signature="getUserDetails()[pri:1, instance:restAssuredTests.Get_Request_User@7ca48474]" name="getUserDetails" duration-ms="2522" started-at="2021-06-08T18:18:34Z" finished-at="2021-06-08T18:18:36Z">
          <reporter-output>
          </reporter-output>
        </test-method> <!-- getUserDetails -->
        <test-method status="PASS" signature="getUserCommit()[pri:2, instance:restAssuredTests.Get_Request_User@7ca48474]" name="getUserCommit" duration-ms="753" started-at="2021-06-08T18:18:36Z" finished-at="2021-06-08T18:18:37Z">
          <reporter-output>
          </reporter-output>
        </test-method> <!-- getUserCommit -->
        <test-method status="PASS" signature="getReqCodeByRepo()[pri:3, instance:restAssuredTests.Get_Request_User@7ca48474]" name="getReqCodeByRepo" duration-ms="402" started-at="2021-06-08T18:18:37Z" finished-at="2021-06-08T18:18:37Z">
          <reporter-output>
          </reporter-output>
        </test-method> <!-- getReqCodeByRepo -->
        <test-method status="PASS" signature="getReqCodeByUser()[pri:4, instance:restAssuredTests.Get_Request_User@7ca48474]" name="getReqCodeByUser" duration-ms="591" started-at="2021-06-08T18:18:37Z" finished-at="2021-06-08T18:18:38Z">
          <reporter-output>
          </reporter-output>
        </test-method> <!-- getReqCodeByUser -->
        <test-method status="PASS" signature="getReqIssueByAuthor()[pri:5, instance:restAssuredTests.Get_Request_User@7ca48474]" name="getReqIssueByAuthor" duration-ms="940" started-at="2021-06-08T18:18:38Z" finished-at="2021-06-08T18:18:39Z">
          <reporter-output>
          </reporter-output>
        </test-method> <!-- getReqIssueByAuthor -->
        <test-method status="PASS" signature="getReqIssueByClosedBug()[pri:6, instance:restAssuredTests.Get_Request_User@7ca48474]" name="getReqIssueByClosedBug" duration-ms="478" started-at="2021-06-08T18:18:39Z" finished-at="2021-06-08T18:18:39Z">
          <reporter-output>
          </reporter-output>
        </test-method> <!-- getReqIssueByClosedBug -->
        <test-method status="PASS" signature="getReqLabels()[pri:7, instance:restAssuredTests.Get_Request_User@7ca48474]" name="getReqLabels" duration-ms="298" started-at="2021-06-08T18:18:39Z" finished-at="2021-06-08T18:18:39Z">
          <reporter-output>
          </reporter-output>
        </test-method> <!-- getReqLabels -->
        <test-method status="PASS" signature="getReqRepoFork()[pri:8, instance:restAssuredTests.Get_Request_User@7ca48474]" name="getReqRepoFork" duration-ms="938" started-at="2021-06-08T18:18:39Z" finished-at="2021-06-08T18:18:40Z">
          <reporter-output>
          </reporter-output>
        </test-method> <!-- getReqRepoFork -->
        <test-method status="PASS" signature="getReqTopics()[pri:9, instance:restAssuredTests.Get_Request_User@7ca48474]" name="getReqTopics" duration-ms="288" started-at="2021-06-08T18:18:40Z" finished-at="2021-06-08T18:18:41Z">
          <reporter-output>
          </reporter-output>
        </test-method> <!-- getReqTopics -->
        <test-method status="PASS" signature="getReqUserByFollowers()[pri:10, instance:restAssuredTests.Get_Request_User@7ca48474]" name="getReqUserByFollowers" duration-ms="316" started-at="2021-06-08T18:18:41Z" finished-at="2021-06-08T18:18:41Z">
          <reporter-output>
          </reporter-output>
        </test-method> <!-- getReqUserByFollowers -->
      </class> <!-- restAssuredTests.Get_Request_User -->
    </test> <!-- /Users/asel/Documents/javaMentoring/githubAPI -->
  </suite> <!-- All Test Suite -->
</testng-results>
